{
    "name": "CardLoading.Tests",
    "rootNamespace": "",
    "references": [
        "GUID:27619889b8ba8c24980f49ee34dbb44a",
        "GUID:0acc523941302664db1f4e527237feb3",
        "GUID:f51ebe6a0ceec4240a699833d6309b23",
        "GUID:e9c834b3d0fb67a4d91fa5545a680ac6"
    ],
    "includePlatforms": [
        "Editor"
    ],
    "excludePlatforms": [],
    "allowUnsafeCode": false,
    "overrideReferences": true,
    "precompiledReferences": [
        "nunit.framework.dll",
        "Moq.dll"
    ],
    "autoReferenced": false,
    "defineConstraints": [
        "UNITY_INCLUDE_TESTS"
    ],
    "versionDefines": [],
    "noEngineReferences": false
}